Initial Solution: 192
Best Solution: 64 of 192
Time: 6 seconds

Initial Solution: 192
Best Solution: 64 of 192
Time: 7 seconds

Initial Solution: 192
Best Solution: 63 of 192
Time: 7 seconds

Initial Solution: 192
Best Solution: 60 of 192
Time: 7 seconds

Initial Solution: 192
Best Solution: 62 of 192
Time: 6 seconds

