Initial Solution: 715
Best Solution: 31 of 715
Time: 20 seconds

Initial Solution: 715
Best Solution: 32 of 715
Time: 20 seconds

Initial Solution: 715
Best Solution: 33 of 715
Time: 24 seconds

Initial Solution: 715
Best Solution: 32 of 715
Time: 29 seconds

Initial Solution: 715
Best Solution: 31 of 715
Time: 21 seconds

