Initial Solution: 2304
Best Solution: 904 of 2304
Time: 52 seconds

Initial Solution: 2304
Best Solution: 899 of 2304
Time: 58 seconds

Initial Solution: 2304
Best Solution: 898 of 2304
Time: 55 seconds

Initial Solution: 2304
Best Solution: 905 of 2304
Time: 53 seconds

Initial Solution: 2304
Best Solution: 903 of 2304
Time: 56 seconds

