Initial Solution: 448
Best Solution: 153 of 448
Time: 10 seconds

Initial Solution: 448
Best Solution: 160 of 448
Time: 10 seconds

Initial Solution: 448
Best Solution: 155 of 448
Time: 11 seconds

Initial Solution: 448
Best Solution: 157 of 448
Time: 10 seconds

Initial Solution: 448
Best Solution: 155 of 448
Time: 10 seconds

